simulation/qsim/TP2_E5.msim.vcd
$comment
	File created using the following command:
		vcd file TP2_E5.msim.vcd -direction
$end
$date
	Sun Jun 02 22:16:08 2024
$end
$version
	ModelSim Version 2020.1
$end
$timescale
	1ps
$end

$scope module TP2_E5_vlg_vec_tst $end
$var reg 1 ! CLK $end
$var reg 1 " RST $end
$var wire 1 # DEBUG_NEXTPC_C [7] $end
$var wire 1 $ DEBUG_NEXTPC_C [6] $end
$var wire 1 % DEBUG_NEXTPC_C [5] $end
$var wire 1 & DEBUG_NEXTPC_C [4] $end
$var wire 1 ' DEBUG_NEXTPC_C [3] $end
$var wire 1 ( DEBUG_NEXTPC_C [2] $end
$var wire 1 ) DEBUG_NEXTPC_C [1] $end
$var wire 1 * DEBUG_NEXTPC_C [0] $end
$var wire 1 + f7_debug_C [6] $end
$var wire 1 , f7_debug_C [5] $end
$var wire 1 - f7_debug_C [4] $end
$var wire 1 . f7_debug_C [3] $end
$var wire 1 / f7_debug_C [2] $end
$var wire 1 0 f7_debug_C [1] $end
$var wire 1 1 f7_debug_C [0] $end
$var wire 1 2 inst_debug [31] $end
$var wire 1 3 inst_debug [30] $end
$var wire 1 4 inst_debug [29] $end
$var wire 1 5 inst_debug [28] $end
$var wire 1 6 inst_debug [27] $end
$var wire 1 7 inst_debug [26] $end
$var wire 1 8 inst_debug [25] $end
$var wire 1 9 inst_debug [24] $end
$var wire 1 : inst_debug [23] $end
$var wire 1 ; inst_debug [22] $end
$var wire 1 < inst_debug [21] $end
$var wire 1 = inst_debug [20] $end
$var wire 1 > inst_debug [19] $end
$var wire 1 ? inst_debug [18] $end
$var wire 1 @ inst_debug [17] $end
$var wire 1 A inst_debug [16] $end
$var wire 1 B inst_debug [15] $end
$var wire 1 C inst_debug [14] $end
$var wire 1 D inst_debug [13] $end
$var wire 1 E inst_debug [12] $end
$var wire 1 F inst_debug [11] $end
$var wire 1 G inst_debug [10] $end
$var wire 1 H inst_debug [9] $end
$var wire 1 I inst_debug [8] $end
$var wire 1 J inst_debug [7] $end
$var wire 1 K inst_debug [6] $end
$var wire 1 L inst_debug [5] $end
$var wire 1 M inst_debug [4] $end
$var wire 1 N inst_debug [3] $end
$var wire 1 O inst_debug [2] $end
$var wire 1 P inst_debug [1] $end
$var wire 1 Q inst_debug [0] $end
$var wire 1 R pc_debugg [7] $end
$var wire 1 S pc_debugg [6] $end
$var wire 1 T pc_debugg [5] $end
$var wire 1 U pc_debugg [4] $end
$var wire 1 V pc_debugg [3] $end
$var wire 1 W pc_debugg [2] $end
$var wire 1 X pc_debugg [1] $end
$var wire 1 Y pc_debugg [0] $end

$scope module i1 $end
$var wire 1 Z gnd $end
$var wire 1 [ vcc $end
$var wire 1 \ unknown $end
$var tri1 1 ] devclrn $end
$var tri1 1 ^ devpor $end
$var tri1 1 _ devoe $end
$var wire 1 ` DEBUG_NEXTPC_C[7]~output_o $end
$var wire 1 a DEBUG_NEXTPC_C[6]~output_o $end
$var wire 1 b DEBUG_NEXTPC_C[5]~output_o $end
$var wire 1 c DEBUG_NEXTPC_C[4]~output_o $end
$var wire 1 d DEBUG_NEXTPC_C[3]~output_o $end
$var wire 1 e DEBUG_NEXTPC_C[2]~output_o $end
$var wire 1 f DEBUG_NEXTPC_C[1]~output_o $end
$var wire 1 g DEBUG_NEXTPC_C[0]~output_o $end
$var wire 1 h f7_debug_C[6]~output_o $end
$var wire 1 i f7_debug_C[5]~output_o $end
$var wire 1 j f7_debug_C[4]~output_o $end
$var wire 1 k f7_debug_C[3]~output_o $end
$var wire 1 l f7_debug_C[2]~output_o $end
$var wire 1 m f7_debug_C[1]~output_o $end
$var wire 1 n f7_debug_C[0]~output_o $end
$var wire 1 o inst_debug[31]~output_o $end
$var wire 1 p inst_debug[30]~output_o $end
$var wire 1 q inst_debug[29]~output_o $end
$var wire 1 r inst_debug[28]~output_o $end
$var wire 1 s inst_debug[27]~output_o $end
$var wire 1 t inst_debug[26]~output_o $end
$var wire 1 u inst_debug[25]~output_o $end
$var wire 1 v inst_debug[24]~output_o $end
$var wire 1 w inst_debug[23]~output_o $end
$var wire 1 x inst_debug[22]~output_o $end
$var wire 1 y inst_debug[21]~output_o $end
$var wire 1 z inst_debug[20]~output_o $end
$var wire 1 { inst_debug[19]~output_o $end
$var wire 1 | inst_debug[18]~output_o $end
$var wire 1 } inst_debug[17]~output_o $end
$var wire 1 ~ inst_debug[16]~output_o $end
$var wire 1 !! inst_debug[15]~output_o $end
$var wire 1 "! inst_debug[14]~output_o $end
$var wire 1 #! inst_debug[13]~output_o $end
$var wire 1 $! inst_debug[12]~output_o $end
$var wire 1 %! inst_debug[11]~output_o $end
$var wire 1 &! inst_debug[10]~output_o $end
$var wire 1 '! inst_debug[9]~output_o $end
$var wire 1 (! inst_debug[8]~output_o $end
$var wire 1 )! inst_debug[7]~output_o $end
$var wire 1 *! inst_debug[6]~output_o $end
$var wire 1 +! inst_debug[5]~output_o $end
$var wire 1 ,! inst_debug[4]~output_o $end
$var wire 1 -! inst_debug[3]~output_o $end
$var wire 1 .! inst_debug[2]~output_o $end
$var wire 1 /! inst_debug[1]~output_o $end
$var wire 1 0! inst_debug[0]~output_o $end
$var wire 1 1! pc_debugg[7]~output_o $end
$var wire 1 2! pc_debugg[6]~output_o $end
$var wire 1 3! pc_debugg[5]~output_o $end
$var wire 1 4! pc_debugg[4]~output_o $end
$var wire 1 5! pc_debugg[3]~output_o $end
$var wire 1 6! pc_debugg[2]~output_o $end
$var wire 1 7! pc_debugg[1]~output_o $end
$var wire 1 8! pc_debugg[0]~output_o $end
$var wire 1 9! CLK~input_o $end
$var wire 1 :! CLK~inputclkctrl_outclk $end
$var wire 1 ;! RST~input_o $end
$var wire 1 <! fasdfa|inst3|next_pc[2]~6_combout $end
$var wire 1 =! fasdfa|inst3|next_pc[2]~7 $end
$var wire 1 >! fasdfa|inst3|next_pc[3]~8_combout $end
$var wire 1 ?! fasdfa|inst3|next_pc[3]~9 $end
$var wire 1 @! fasdfa|inst3|next_pc[4]~10_combout $end
$var wire 1 A! fasdfa|inst3|next_pc[4]~11 $end
$var wire 1 B! fasdfa|inst3|next_pc[5]~12_combout $end
$var wire 1 C! fasdfa|inst3|next_pc[5]~13 $end
$var wire 1 D! fasdfa|inst3|next_pc[6]~14_combout $end
$var wire 1 E! fasdfa|inst3|next_pc[6]~15 $end
$var wire 1 F! fasdfa|inst3|next_pc[7]~16_combout $end
$var wire 1 G! inst2|next_pc~0_combout $end
$var wire 1 H! inst30|Curr_Pc_out~0_combout $end
$var wire 1 I! inst64484771771|next_pc~0_combout $end
$var wire 1 J! inst2|next_pc~1_combout $end
$var wire 1 K! inst30|Curr_Pc_out~1_combout $end
$var wire 1 L! inst64484771771|next_pc~1_combout $end
$var wire 1 M! inst2|next_pc~2_combout $end
$var wire 1 N! inst30|Curr_Pc_out~2_combout $end
$var wire 1 O! inst64484771771|next_pc~2_combout $end
$var wire 1 P! inst2|next_pc~3_combout $end
$var wire 1 Q! inst30|Curr_Pc_out~3_combout $end
$var wire 1 R! inst64484771771|next_pc~3_combout $end
$var wire 1 S! inst2|next_pc~4_combout $end
$var wire 1 T! inst30|Curr_Pc_out~4_combout $end
$var wire 1 U! inst64484771771|next_pc~4_combout $end
$var wire 1 V! inst2|next_pc~5_combout $end
$var wire 1 W! inst30|Curr_Pc_out~5_combout $end
$var wire 1 X! inst64484771771|next_pc~5_combout $end
$var wire 1 Y! fasdfa|inst3|next_pc [7] $end
$var wire 1 Z! fasdfa|inst3|next_pc [6] $end
$var wire 1 [! fasdfa|inst3|next_pc [5] $end
$var wire 1 \! fasdfa|inst3|next_pc [4] $end
$var wire 1 ]! fasdfa|inst3|next_pc [3] $end
$var wire 1 ^! fasdfa|inst3|next_pc [2] $end
$var wire 1 _! fasdfa|inst3|next_pc [1] $end
$var wire 1 `! fasdfa|inst3|next_pc [0] $end
$var wire 1 a! inst64484771771|next_pc [7] $end
$var wire 1 b! inst64484771771|next_pc [6] $end
$var wire 1 c! inst64484771771|next_pc [5] $end
$var wire 1 d! inst64484771771|next_pc [4] $end
$var wire 1 e! inst64484771771|next_pc [3] $end
$var wire 1 f! inst64484771771|next_pc [2] $end
$var wire 1 g! inst64484771771|next_pc [1] $end
$var wire 1 h! inst64484771771|next_pc [0] $end
$var wire 1 i! inst30|Curr_Pc_out [7] $end
$var wire 1 j! inst30|Curr_Pc_out [6] $end
$var wire 1 k! inst30|Curr_Pc_out [5] $end
$var wire 1 l! inst30|Curr_Pc_out [4] $end
$var wire 1 m! inst30|Curr_Pc_out [3] $end
$var wire 1 n! inst30|Curr_Pc_out [2] $end
$var wire 1 o! inst30|Curr_Pc_out [1] $end
$var wire 1 p! inst30|Curr_Pc_out [0] $end
$var wire 1 q! inst2|next_pc [7] $end
$var wire 1 r! inst2|next_pc [6] $end
$var wire 1 s! inst2|next_pc [5] $end
$var wire 1 t! inst2|next_pc [4] $end
$var wire 1 u! inst2|next_pc [3] $end
$var wire 1 v! inst2|next_pc [2] $end
$var wire 1 w! inst2|next_pc [1] $end
$var wire 1 x! inst2|next_pc [0] $end
$upscope $end
$upscope $end
$enddefinitions $end
#0
$dumpvars
0!
1"
0*
0)
0(
0'
0&
0%
0$
0#
01
00
0/
0.
0-
0,
0+
0Q
0P
0O
0N
0M
0L
0K
0J
0I
0H
0G
0F
0E
0D
0C
0B
0A
0@
0?
0>
0=
0<
0;
0:
09
08
07
06
05
04
03
02
0Y
0X
0W
0V
0U
0T
0S
0R
0Z
1[
x\
1]
1^
1_
0`
0a
0b
0c
0d
0e
0f
0g
0h
0i
0j
0k
0l
0m
0n
0o
0p
0q
0r
0s
0t
0u
0v
0w
0x
0y
0z
0{
0|
0}
0~
0!!
0"!
0#!
0$!
0%!
0&!
0'!
0(!
0)!
0*!
0+!
0,!
0-!
0.!
0/!
00!
01!
02!
03!
04!
05!
06!
07!
08!
09!
0:!
1;!
1<!
0=!
0>!
1?!
0@!
0A!
0B!
1C!
0D!
0E!
0F!
0G!
0H!
0I!
0J!
0K!
0L!
0M!
0N!
0O!
0P!
0Q!
0R!
0S!
0T!
0U!
0V!
0W!
0X!
z`!
z_!
0^!
0]!
0\!
0[!
0Z!
0Y!
zh!
zg!
0f!
0e!
0d!
0c!
0b!
0a!
zp!
zo!
0n!
0m!
0l!
0k!
0j!
0i!
zx!
zw!
0v!
0u!
0t!
0s!
0r!
0q!
$end
#1000
1!
19!
1:!
1^!
16!
1=!
1W
1V!
0<!
1>!
#2000
0!
09!
0:!
#3000
1!
19!
1:!
1v!
1]!
0^!
06!
15!
0?!
0=!
1V
0W
1W!
1S!
0>!
0V!
1<!
1?!
1@!
1>!
0@!
#4000
0!
09!
0:!
#5000
1!
19!
1:!
1n!
0v!
1u!
1^!
16!
1=!
1W
1X!
0W!
1T!
1V!
0<!
0?!
0>!
1@!
#6000
0!
09!
0:!
#7000
1!
19!
1:!
0n!
1v!
1m!
1f!
1\!
0]!
0^!
06!
05!
14!
1e
1A!
1?!
0=!
1(
1U
0V
0W
0X!
1W!
1U!
1P!
0@!
0S!
1>!
0V!
1<!
0A!
1B!
1@!
0>!
0B!
#8000
0!
09!
0:!
#9000
1!
19!
1:!
1n!
0v!
0u!
1t!
0f!
1e!
1^!
16!
1d
0e
1=!
0(
1'
1W
1X!
0W!
0T!
1Q!
1V!
0<!
1>!
#10000
0!
09!
0:!
#11000
1!
19!
1:!
0n!
1v!
0m!
1l!
1f!
1]!
0^!
06!
15!
1e
0?!
0=!
1(
1V
0W
0X!
1W!
0U!
1R!
1S!
0>!
0V!
1<!
1A!
1?!
0@!
1>!
0A!
1B!
1@!
0B!
#12000
0!
09!
0:!
#13000
1!
19!
1:!
1n!
0v!
1u!
0f!
0e!
1d!
1^!
16!
1c
0d
0e
1=!
0(
0'
1&
1W
1X!
0W!
1T!
1V!
0<!
0?!
0>!
1A!
0@!
1B!
#14000
0!
09!
0:!
#15000
1!
19!
1:!
0n!
1v!
1m!
1f!
1[!
0\!
0]!
0^!
06!
05!
04!
13!
1e
0C!
0A!
1?!
0=!
1(
1T
0U
0V
0W
0X!
1W!
1U!
1M!
0B!
0P!
1@!
0S!
1>!
0V!
1<!
1C!
1D!
1B!
0@!
0>!
0D!
#16000
0!
09!
0:!
#17000
1!
19!
1:!
1n!
0v!
0u!
0t!
1s!
0f!
1e!
1^!
16!
1d
0e
1=!
0(
1'
1W
1X!
0W!
0T!
0Q!
1N!
1V!
0<!
1>!
#18000
0!
09!
0:!
#19000
1!
19!
1:!
0n!
1v!
0m!
0l!
1k!
1f!
1]!
0^!
06!
15!
1e
0?!
0=!
1(
1V
0W
0X!
1W!
0U!
0R!
1O!
1S!
0>!
0V!
1<!
1?!
1@!
1>!
0@!
#20000
0!
09!
0:!
#21000
1!
19!
1:!
1n!
0v!
1u!
0f!
0e!
0d!
1c!
1^!
16!
1b
0c
0d
0e
1=!
0(
0'
0&
1%
1W
1X!
0W!
1T!
1V!
0<!
0?!
0>!
1@!
#22000
0!
09!
0:!
#23000
1!
19!
1:!
0n!
1v!
1m!
1f!
1\!
0]!
0^!
06!
05!
14!
1e
1A!
1?!
0=!
1(
1U
0V
0W
0X!
1W!
1U!
1P!
0@!
0S!
1>!
0V!
1<!
0C!
0A!
0B!
1@!
0>!
1C!
1D!
1B!
0D!
#24000
0!
09!
0:!
#25000
1!
19!
1:!
1n!
0v!
0u!
1t!
0f!
1e!
1^!
16!
1d
0e
1=!
0(
1'
1W
1X!
0W!
0T!
1Q!
1V!
0<!
1>!
#26000
0!
09!
0:!
#27000
1!
19!
1:!
0n!
1v!
0m!
1l!
1f!
1]!
0^!
06!
15!
1e
0?!
0=!
1(
1V
0W
0X!
1W!
0U!
1R!
1S!
0>!
0V!
1<!
1A!
1?!
0@!
1>!
0C!
0A!
0B!
1@!
1C!
1D!
1B!
0D!
#28000
0!
09!
0:!
#29000
1!
19!
1:!
1n!
0v!
1u!
0f!
0e!
1d!
1^!
16!
1c
0d
0e
1=!
0(
0'
1&
1W
1X!
0W!
1T!
1V!
0<!
0?!
0>!
1A!
0@!
0C!
0B!
1D!
#30000
0!
09!
0:!
#31000
1!
19!
1:!
0n!
1v!
1m!
1f!
1Z!
0[!
0\!
0]!
0^!
06!
05!
04!
03!
12!
1e
1E!
1C!
0A!
1?!
0=!
1(
1S
0T
0U
0V
0W
0X!
1W!
1U!
1J!
0D!
0M!
1B!
0P!
1@!
0S!
1>!
0V!
1<!
0E!
1F!
1D!
0B!
0@!
0>!
0F!
#32000
0!
09!
0:!
#33000
1!
19!
1:!
1n!
0v!
0u!
0t!
0s!
1r!
0f!
1e!
1^!
16!
1d
0e
1=!
0(
1'
1W
1X!
0W!
0T!
0Q!
0N!
1K!
1V!
0<!
1>!
#34000
0!
09!
0:!
#35000
1!
19!
1:!
0n!
1v!
0m!
0l!
0k!
1j!
1f!
1]!
0^!
06!
15!
1e
0?!
0=!
1(
1V
0W
0X!
1W!
0U!
0R!
0O!
1L!
1S!
0>!
0V!
1<!
1?!
1@!
1>!
0@!
#36000
0!
09!
0:!
#37000
1!
19!
1:!
1n!
0v!
1u!
0f!
0e!
0d!
0c!
1b!
1^!
16!
1a
0b
0c
0d
0e
1=!
0(
0'
0&
0%
1$
1W
1X!
0W!
1T!
1V!
0<!
0?!
0>!
1@!
#38000
0!
09!
0:!
#39000
1!
19!
1:!
0n!
1v!
1m!
1f!
1\!
0]!
0^!
06!
05!
14!
1e
1A!
1?!
0=!
1(
1U
0V
0W
0X!
1W!
1U!
1P!
0@!
0S!
1>!
0V!
1<!
0A!
1B!
1@!
0>!
0B!
#40000
0!
09!
0:!
#41000
1!
19!
1:!
1n!
0v!
0u!
1t!
0f!
1e!
1^!
16!
1d
0e
1=!
0(
1'
1W
1X!
0W!
0T!
1Q!
1V!
0<!
1>!
#42000
0!
09!
0:!
#43000
1!
19!
1:!
0n!
1v!
0m!
1l!
1f!
1]!
0^!
06!
15!
1e
0?!
0=!
1(
1V
0W
0X!
1W!
0U!
1R!
1S!
0>!
0V!
1<!
1A!
1?!
0@!
1>!
0A!
1B!
1@!
0B!
#44000
0!
09!
0:!
#45000
1!
19!
1:!
1n!
0v!
1u!
0f!
0e!
1d!
1^!
16!
1c
0d
0e
1=!
0(
0'
1&
1W
1X!
0W!
1T!
1V!
0<!
0?!
0>!
1A!
0@!
1B!
#46000
0!
09!
0:!
#47000
1!
19!
1:!
0n!
1v!
1m!
1f!
1[!
0\!
0]!
0^!
06!
05!
04!
13!
1e
0C!
0A!
1?!
0=!
1(
1T
0U
0V
0W
0X!
1W!
1U!
1M!
0B!
0P!
1@!
0S!
1>!
0V!
1<!
1E!
1C!
0D!
1B!
0@!
0>!
0E!
1F!
1D!
0F!
#48000
0!
09!
0:!
#49000
1!
19!
1:!
1n!
0v!
0u!
0t!
1s!
0f!
1e!
1^!
16!
1d
0e
1=!
0(
1'
1W
1X!
0W!
0T!
0Q!
1N!
1V!
0<!
1>!
#50000
0!
09!
0:!
#51000
1!
19!
1:!
0n!
1v!
0m!
0l!
1k!
1f!
1]!
0^!
06!
15!
1e
0?!
0=!
1(
1V
0W
0X!
1W!
0U!
0R!
1O!
1S!
0>!
0V!
1<!
1?!
1@!
1>!
0@!
#52000
0!
09!
0:!
#53000
1!
19!
1:!
1n!
0v!
1u!
0f!
0e!
0d!
1c!
1^!
16!
1b
0c
0d
0e
1=!
0(
0'
0&
1%
1W
1X!
0W!
1T!
1V!
0<!
0?!
0>!
1@!
#54000
0!
09!
0:!
#55000
1!
19!
1:!
0n!
1v!
1m!
1f!
1\!
0]!
0^!
06!
05!
14!
1e
1A!
1?!
0=!
1(
1U
0V
0W
0X!
1W!
1U!
1P!
0@!
0S!
1>!
0V!
1<!
0C!
0A!
0B!
1@!
0>!
1E!
1C!
0D!
1B!
0E!
1F!
1D!
0F!
#56000
0!
09!
0:!
#57000
1!
19!
1:!
1n!
0v!
0u!
1t!
0f!
1e!
1^!
16!
1d
0e
1=!
0(
1'
1W
1X!
0W!
0T!
1Q!
1V!
0<!
1>!
#58000
0!
09!
0:!
#59000
1!
19!
1:!
0n!
1v!
0m!
1l!
1f!
1]!
0^!
06!
15!
1e
0?!
0=!
1(
1V
0W
0X!
1W!
0U!
1R!
1S!
0>!
0V!
1<!
1A!
1?!
0@!
1>!
0C!
0A!
0B!
1@!
1E!
1C!
0D!
1B!
0E!
1F!
1D!
0F!
#60000
0!
09!
0:!
#61000
1!
19!
1:!
1n!
0v!
1u!
0f!
0e!
1d!
1^!
16!
1c
0d
0e
1=!
0(
0'
1&
1W
1X!
0W!
1T!
1V!
0<!
0?!
0>!
1A!
0@!
0C!
0B!
1E!
0D!
1F!
#62000
0!
09!
0:!
#63000
1!
19!
1:!
0n!
1v!
1m!
1f!
1Y!
0Z!
0[!
0\!
0]!
0^!
06!
05!
04!
03!
02!
11!
1e
0E!
1C!
0A!
1?!
0=!
1(
1R
0S
0T
0U
0V
0W
0X!
1W!
1U!
1G!
0F!
0J!
1D!
0M!
1B!
0P!
1@!
0S!
1>!
0V!
1<!
1F!
0D!
0B!
0@!
0>!
#64000
0!
09!
0:!
#65000
1!
19!
1:!
1n!
0v!
0u!
0t!
0s!
0r!
1q!
0f!
1e!
1^!
16!
1d
0e
1=!
0(
1'
1W
1X!
0W!
0T!
0Q!
0N!
0K!
1H!
1V!
0<!
1>!
#66000
0!
09!
0:!
#67000
1!
19!
1:!
0n!
1v!
0m!
0l!
0k!
0j!
1i!
1f!
1]!
0^!
06!
15!
1e
0?!
0=!
1(
1V
0W
0X!
1W!
0U!
0R!
0O!
0L!
1I!
1S!
0>!
0V!
1<!
1?!
1@!
1>!
0@!
#68000
0!
09!
0:!
#69000
1!
19!
1:!
1n!
0v!
1u!
0f!
0e!
0d!
0c!
0b!
1a!
1^!
16!
1`
0a
0b
0c
0d
0e
1=!
0(
0'
0&
0%
0$
1#
1W
1X!
0W!
1T!
1V!
0<!
0?!
0>!
1@!
#70000
0!
09!
0:!
#71000
1!
19!
1:!
0n!
1v!
1m!
1f!
1\!
0]!
0^!
06!
05!
14!
1e
1A!
1?!
0=!
1(
1U
0V
0W
0X!
1W!
1U!
1P!
0@!
0S!
1>!
0V!
1<!
0A!
1B!
1@!
0>!
0B!
#72000
0!
09!
0:!
#73000
1!
19!
1:!
1n!
0v!
0u!
1t!
0f!
1e!
1^!
16!
1d
0e
1=!
0(
1'
1W
1X!
0W!
0T!
1Q!
1V!
0<!
1>!
#74000
0!
09!
0:!
#75000
1!
19!
1:!
0n!
1v!
0m!
1l!
1f!
1]!
0^!
06!
15!
1e
0?!
0=!
1(
1V
0W
0X!
1W!
0U!
1R!
1S!
0>!
0V!
1<!
1A!
1?!
0@!
1>!
0A!
1B!
1@!
0B!
#76000
0!
09!
0:!
#77000
1!
19!
1:!
1n!
0v!
1u!
0f!
0e!
1d!
1^!
16!
1c
0d
0e
1=!
0(
0'
1&
1W
1X!
0W!
1T!
1V!
0<!
0?!
0>!
1A!
0@!
1B!
#78000
0!
09!
0:!
#79000
1!
19!
1:!
0n!
1v!
1m!
1f!
1[!
0\!
0]!
0^!
06!
05!
04!
13!
1e
0C!
0A!
1?!
0=!
1(
1T
0U
0V
0W
0X!
1W!
1U!
1M!
0B!
0P!
1@!
0S!
1>!
0V!
1<!
1C!
1D!
1B!
0@!
0>!
0D!
#80000
0!
09!
0:!
#81000
1!
19!
1:!
1n!
0v!
0u!
0t!
1s!
0f!
1e!
1^!
16!
1d
0e
1=!
0(
1'
1W
1X!
0W!
0T!
0Q!
1N!
1V!
0<!
1>!
#82000
0!
09!
0:!
#83000
1!
19!
1:!
0n!
1v!
0m!
0l!
1k!
1f!
1]!
0^!
06!
15!
1e
0?!
0=!
1(
1V
0W
0X!
1W!
0U!
0R!
1O!
1S!
0>!
0V!
1<!
1?!
1@!
1>!
0@!
#84000
0!
09!
0:!
#85000
1!
19!
1:!
1n!
0v!
1u!
0f!
0e!
0d!
1c!
1^!
16!
1b
0c
0d
0e
1=!
0(
0'
0&
1%
1W
1X!
0W!
1T!
1V!
0<!
0?!
0>!
1@!
#86000
0!
09!
0:!
#87000
1!
19!
1:!
0n!
1v!
1m!
1f!
1\!
0]!
0^!
06!
05!
14!
1e
1A!
1?!
0=!
1(
1U
0V
0W
0X!
1W!
1U!
1P!
0@!
0S!
1>!
0V!
1<!
0C!
0A!
0B!
1@!
0>!
1C!
1D!
1B!
0D!
#88000
0!
09!
0:!
#89000
1!
19!
1:!
1n!
0v!
0u!
1t!
0f!
1e!
1^!
16!
1d
0e
1=!
0(
1'
1W
1X!
0W!
0T!
1Q!
1V!
0<!
1>!
#90000
0!
09!
0:!
#91000
1!
19!
1:!
0n!
1v!
0m!
1l!
1f!
1]!
0^!
06!
15!
1e
0?!
0=!
1(
1V
0W
0X!
1W!
0U!
1R!
1S!
0>!
0V!
1<!
1A!
1?!
0@!
1>!
0C!
0A!
0B!
1@!
1C!
1D!
1B!
0D!
#92000
0!
09!
0:!
#93000
1!
19!
1:!
1n!
0v!
1u!
0f!
0e!
1d!
1^!
16!
1c
0d
0e
1=!
0(
0'
1&
1W
1X!
0W!
1T!
1V!
0<!
0?!
0>!
1A!
0@!
0C!
0B!
1D!
#94000
0!
09!
0:!
#95000
1!
19!
1:!
0n!
1v!
1m!
1f!
1Z!
0[!
0\!
0]!
0^!
06!
05!
04!
03!
12!
1e
1E!
1C!
0A!
1?!
0=!
1(
1S
0T
0U
0V
0W
0X!
1W!
1U!
1J!
0D!
0M!
1B!
0P!
1@!
0S!
1>!
0V!
1<!
0E!
0F!
1D!
0B!
0@!
0>!
1F!
#96000
0!
09!
0:!
#97000
1!
19!
1:!
1n!
0v!
0u!
0t!
0s!
1r!
0f!
1e!
1^!
16!
1d
0e
1=!
0(
1'
1W
1X!
0W!
0T!
0Q!
0N!
1K!
1V!
0<!
1>!
#98000
0!
09!
0:!
#99000
1!
19!
1:!
0n!
1v!
0m!
0l!
0k!
1j!
1f!
1]!
0^!
06!
15!
1e
0?!
0=!
1(
1V
0W
0X!
1W!
0U!
0R!
0O!
1L!
1S!
0>!
0V!
1<!
1?!
1@!
1>!
0@!
#100000
0!
09!
0:!
#101000
1!
19!
1:!
1n!
0v!
1u!
0f!
0e!
0d!
0c!
1b!
1^!
16!
1a
0b
0c
0d
0e
1=!
0(
0'
0&
0%
1$
1W
1X!
0W!
1T!
1V!
0<!
0?!
0>!
1@!
#102000
0!
09!
0:!
#103000
1!
19!
1:!
0n!
1v!
1m!
1f!
1\!
0]!
0^!
06!
05!
14!
1e
1A!
1?!
0=!
1(
1U
0V
0W
0X!
1W!
1U!
1P!
0@!
0S!
1>!
0V!
1<!
0A!
1B!
1@!
0>!
0B!
#104000
0!
09!
0:!
#105000
1!
19!
1:!
1n!
0v!
0u!
1t!
0f!
1e!
1^!
16!
1d
0e
1=!
0(
1'
1W
1X!
0W!
0T!
1Q!
1V!
0<!
1>!
#106000
0!
09!
0:!
#107000
1!
19!
1:!
0n!
1v!
0m!
1l!
1f!
1]!
0^!
06!
15!
1e
0?!
0=!
1(
1V
0W
0X!
1W!
0U!
1R!
1S!
0>!
0V!
1<!
1A!
1?!
0@!
1>!
0A!
1B!
1@!
0B!
#108000
0!
09!
0:!
#109000
1!
19!
1:!
1n!
0v!
1u!
0f!
0e!
1d!
1^!
16!
1c
0d
0e
1=!
0(
0'
1&
1W
1X!
0W!
1T!
1V!
0<!
0?!
0>!
1A!
0@!
1B!
#110000
0!
09!
0:!
#111000
1!
19!
1:!
0n!
1v!
1m!
1f!
1[!
0\!
0]!
0^!
06!
05!
04!
13!
1e
0C!
0A!
1?!
0=!
1(
1T
0U
0V
0W
0X!
1W!
1U!
1M!
0B!
0P!
1@!
0S!
1>!
0V!
1<!
1E!
1C!
0D!
1B!
0@!
0>!
0E!
0F!
1D!
1F!
#112000
0!
09!
0:!
#113000
1!
19!
1:!
1n!
0v!
0u!
0t!
1s!
0f!
1e!
1^!
16!
1d
0e
1=!
0(
1'
1W
1X!
0W!
0T!
0Q!
1N!
1V!
0<!
1>!
#114000
0!
09!
0:!
#115000
1!
19!
1:!
0n!
1v!
0m!
0l!
1k!
1f!
1]!
0^!
06!
15!
1e
0?!
0=!
1(
1V
0W
0X!
1W!
0U!
0R!
1O!
1S!
0>!
0V!
1<!
1?!
1@!
1>!
0@!
#116000
0!
09!
0:!
#117000
1!
19!
1:!
1n!
0v!
1u!
0f!
0e!
0d!
1c!
1^!
16!
1b
0c
0d
0e
1=!
0(
0'
0&
1%
1W
1X!
0W!
1T!
1V!
0<!
0?!
0>!
1@!
#118000
0!
09!
0:!
#119000
1!
19!
1:!
0n!
1v!
1m!
1f!
1\!
0]!
0^!
06!
05!
14!
1e
1A!
1?!
0=!
1(
1U
0V
0W
0X!
1W!
1U!
1P!
0@!
0S!
1>!
0V!
1<!
0C!
0A!
0B!
1@!
0>!
1E!
1C!
0D!
1B!
0E!
0F!
1D!
1F!
#120000
0!
09!
0:!
#121000
1!
19!
1:!
1n!
0v!
0u!
1t!
0f!
1e!
1^!
16!
1d
0e
1=!
0(
1'
1W
1X!
0W!
0T!
1Q!
1V!
0<!
1>!
#122000
0!
09!
0:!
#123000
1!
19!
1:!
0n!
1v!
0m!
1l!
1f!
1]!
0^!
06!
15!
1e
0?!
0=!
1(
1V
0W
0X!
1W!
0U!
1R!
1S!
0>!
0V!
1<!
1A!
1?!
0@!
1>!
0C!
0A!
0B!
1@!
1E!
1C!
0D!
1B!
0E!
0F!
1D!
1F!
#124000
0!
09!
0:!
#125000
1!
19!
1:!
1n!
0v!
1u!
0f!
0e!
1d!
1^!
16!
1c
0d
0e
1=!
0(
0'
1&
1W
1X!
0W!
1T!
1V!
0<!
0?!
0>!
1A!
0@!
0C!
0B!
1E!
0D!
0F!
#126000
0!
09!
0:!
#127000
1!
19!
1:!
0n!
1v!
1m!
1f!
0Y!
0Z!
0[!
0\!
0]!
0^!
06!
05!
04!
03!
02!
01!
1e
0E!
1C!
0A!
1?!
0=!
1(
0R
0S
0T
0U
0V
0W
0X!
1W!
1U!
0G!
1F!
0J!
1D!
0M!
1B!
0P!
1@!
0S!
1>!
0V!
1<!
0F!
0D!
0B!
0@!
0>!
#128000
0!
09!
0:!
#129000
1!
19!
1:!
1n!
0v!
0u!
0t!
0s!
0r!
0q!
0f!
1e!
1^!
16!
1d
0e
1=!
0(
1'
1W
1X!
0W!
0T!
0Q!
0N!
0K!
0H!
1V!
0<!
1>!
#130000
0!
09!
0:!
#131000
1!
19!
1:!
0n!
1v!
0m!
0l!
0k!
0j!
0i!
1f!
1]!
0^!
06!
15!
1e
0?!
0=!
1(
1V
0W
0X!
1W!
0U!
0R!
0O!
0L!
0I!
1S!
0>!
0V!
1<!
1?!
1@!
1>!
0@!
#132000
0!
09!
0:!
#133000
1!
19!
1:!
1n!
0v!
1u!
0f!
0e!
0d!
0c!
0b!
0a!
1^!
16!
0`
0a
0b
0c
0d
0e
1=!
0(
0'
0&
0%
0$
0#
1W
1X!
0W!
1T!
1V!
0<!
0?!
0>!
1@!
#134000
0!
09!
0:!
#135000
1!
19!
1:!
0n!
1v!
1m!
1f!
1\!
0]!
0^!
06!
05!
14!
1e
1A!
1?!
0=!
1(
1U
0V
0W
0X!
1W!
1U!
1P!
0@!
0S!
1>!
0V!
1<!
0A!
1B!
1@!
0>!
0B!
#136000
0!
09!
0:!
#137000
1!
19!
1:!
1n!
0v!
0u!
1t!
0f!
1e!
1^!
16!
1d
0e
1=!
0(
1'
1W
1X!
0W!
0T!
1Q!
1V!
0<!
1>!
#138000
0!
09!
0:!
